[
  {
    "idKategori":"001",
    "namaKategori":"Baju Wanita",
    "gambarSampul":"http://butternutwebsite.com/alay003_public/category-images/baju-wanita_large.jpg",
    "thumbnailGambarSampul":"http://butternutwebsite.com/alay003_public/category-images/baju-wanita_thumbnail.jpg"
  },
  {
    "idKategori":"002",
    "namaKategori":"Celana Wanita",
    "gambarSampul":"http://butternutwebsite.com/alay003_public/category-images/baju-wanita_large.jpg",
    "thumbnailGambarSampul":"http://butternutwebsite.com/alay003_public/category-images/baju-wanita_thumbnail.jpg"
  },
  {
    "idKategori":"003",
    "namaKategori":"Jaket Wanita",
    "gambarSampul":"http://butternutwebsite.com/alay003_public/category-images/baju-wanita_large.jpg",
    "thumbnailGambarSampul":"http://butternutwebsite.com/alay003_public/category-images/baju-wanita_thumbnail.jpg"
  },
  {
    "idKategori":"004",
    "namaKategori":"Sepatu Wanita",
    "gambarSampul":"http://butternutwebsite.com/alay003_public/category-images/baju-wanita_large.jpg",
    "thumbnailGambarSampul":"http://butternutwebsite.com/alay003_public/category-images/baju-wanita_thumbnail.jpg"
  }
]